Jan 02, 2022 11:12:33 PM week2.UserImp LogFile
INFO: user1 has log in
Jan 02, 2022 11:14:27 PM week2.UserImp LogFile
INFO: user1 has log in
Jan 02, 2022 11:15:17 PM week2.UserImp LogFile
INFO: wrong user or password for user: user1
