Jan 02, 2022 11:21:36 PM week2.UserImp LogFile
INFO: Start
Jan 02, 2022 11:21:40 PM week2.UserImp LogFile
INFO: user1 has log in
Jan 02, 2022 11:23:17 PM week2.UserImp LogFile
INFO: Start
Jan 02, 2022 11:23:21 PM week2.UserImp LogFile
INFO: user1 has log in
